<?xml version="1.0" encoding="UTF-8" standalone="no"?>
<!-- Created with Inkscape (http://www.inkscape.org/) -->

<svg
   xmlns:dc="http://purl.org/dc/elements/1.1/"
   xmlns:cc="http://creativecommons.org/ns#"
   xmlns:rdf="http://www.w3.org/1999/02/22-rdf-syntax-ns#"
   xmlns:svg="http://www.w3.org/2000/svg"
   xmlns="http://www.w3.org/2000/svg"
   xmlns:sodipodi="http://sodipodi.sourceforge.net/DTD/sodipodi-0.dtd"
   xmlns:inkscape="http://www.inkscape.org/namespaces/inkscape"
   width="260mm"
   height="260mm"
   viewBox="0 0 260 260"
   version="1.1"
   id="svg8"
   inkscape:version="0.92.3 (2405546, 2018-03-11)"
   sodipodi:docname="Favicon.svg">
  <defs
     id="defs2" />
  <sodipodi:namedview
     id="base"
     pagecolor="#ffffff"
     bordercolor="#666666"
     borderopacity="1.0"
     inkscape:pageopacity="0.0"
     inkscape:pageshadow="2"
     inkscape:zoom="0.7"
     inkscape:cx="273.39476"
     inkscape:cy="427.18134"
     inkscape:document-units="mm"
     inkscape:current-layer="layer1"
     showgrid="false"
     inkscape:measure-start="0,0"
     inkscape:measure-end="0,0"
     inkscape:snap-text-baseline="true"
     inkscape:window-width="1920"
     inkscape:window-height="1017"
     inkscape:window-x="-8"
     inkscape:window-y="-8"
     inkscape:window-maximized="1" />
  <metadata
     id="metadata5">
    <rdf:RDF>
      <cc:Work
         rdf:about="">
        <dc:format>image/svg+xml</dc:format>
        <dc:type
           rdf:resource="http://purl.org/dc/dcmitype/StillImage" />
        <dc:title></dc:title>
      </cc:Work>
    </rdf:RDF>
  </metadata>
  <g
     inkscape:label="Layer 1"
     inkscape:groupmode="layer"
     id="layer1"
     transform="translate(0,-37.000004)">
    <rect
       id="rect10"
       width="260"
       height="260"
       x="-3.5527137e-015"
       y="37.000004"
       style="stroke-width:1.15982401;fill:#f76cd3;fill-opacity:1" />
    <g
       aria-label="SNO
"
       transform="matrix(0.5510746,0,0,0.5510746,-136.84721,-1.4599046)"
       style="font-style:normal;font-weight:normal;font-size:192px;line-height:1.25;font-family:sans-serif;letter-spacing:0px;word-spacing:0px;fill:#000000;fill-opacity:1;stroke:none"
       id="flowRoot817">
      <path
         d="m 382.66016,236.82758 q 0,20.625 -17.53125,33.5625 -17.4375,12.84375 -47.4375,12.84375 -17.34375,0 -30.28125,-3 -12.84375,-3.09375 -24.09375,-7.78125 v -33.46875 h 3.9375 q 11.15625,8.90625 24.9375,13.6875 13.875,4.78125 26.625,4.78125 3.28125,0 8.625,-0.5625 5.34375,-0.5625 8.71875,-1.875 4.125,-1.6875 6.75,-4.21875 2.71875,-2.53125 2.71875,-7.5 0,-4.59375 -3.9375,-7.875 -3.84375,-3.375 -11.34375,-5.15625 -7.875,-1.875 -16.6875,-3.46875 -8.71875,-1.6875 -16.40625,-4.21875 -17.625,-5.71875 -25.40625,-15.46875 -7.6875,-9.84375 -7.6875,-24.375 0,-19.5 17.4375,-31.78125 17.53125,-12.375 45,-12.375 13.78125,0 27.1875,2.71875 13.5,2.625 23.34375,6.65625 v 32.15625 h -3.84375 q -8.4375,-6.75 -20.71875,-11.25 -12.1875,-4.59375 -24.9375,-4.59375 -4.5,0 -9,0.65625 -4.40625,0.5625 -8.53125,2.25 -3.65625,1.40625 -6.28125,4.3125 -2.625,2.8125 -2.625,6.46875 0,5.53125 4.21875,8.53125 4.21875,2.90625 15.9375,5.34375 7.6875,1.59375 14.71875,3.09375 7.125,1.5 15.28125,4.125 16.03125,5.25 23.625,14.34375 7.6875,9 7.6875,23.4375 z"
         style="font-style:normal;font-variant:normal;font-weight:bold;font-stretch:normal;line-height:0;font-family:sans-serif;-inkscape-font-specification:'sans-serif Bold';text-align:center;text-anchor:middle;fill:#fbff3d;fill-opacity:1"
         id="path833" />
      <path
         d="m 534.34766,280.70258 h -34.6875 l -59.25,-95.8125 v 95.8125 h -33 V 141.10883 h 43.03125 l 50.90625,79.96875 v -79.96875 h 33 z"
         style="font-style:normal;font-variant:normal;font-weight:bold;font-stretch:normal;line-height:0;font-family:sans-serif;-inkscape-font-specification:'sans-serif Bold';text-align:center;text-anchor:middle;fill:#fbff3d;fill-opacity:1"
         id="path835" />
      <path
         d="m 705.91016,210.95258 q 0,33.375 -19.125,53.0625 -19.125,19.59375 -52.875,19.59375 -33.65625,0 -52.78125,-19.59375 -19.125,-19.6875 -19.125,-53.0625 0,-33.65625 19.125,-53.15625 19.125,-19.59375 52.78125,-19.59375 33.5625,0 52.78125,19.59375 19.21875,19.5 19.21875,53.15625 z m -47.71875,35.34375 q 5.25,-6.375 7.78125,-15 2.53125,-8.71875 2.53125,-20.4375 0,-12.5625 -2.90625,-21.375 -2.90625,-8.8125 -7.59375,-14.25 -4.78125,-5.625 -11.0625,-8.15625 -6.1875,-2.53125 -12.9375,-2.53125 -6.84375,0 -12.9375,2.4375 -6,2.4375 -11.0625,8.0625 -4.6875,5.25 -7.6875,14.53125 -2.90625,9.1875 -2.90625,21.375 0,12.46875 2.8125,21.28125 2.90625,8.71875 7.59375,14.25 4.6875,5.53125 10.96875,8.15625 6.28125,2.625 13.21875,2.625 6.9375,0 13.21875,-2.625 6.28125,-2.71875 10.96875,-8.34375 z"
         style="font-style:normal;font-variant:normal;font-weight:bold;font-stretch:normal;line-height:0;font-family:sans-serif;-inkscape-font-specification:'sans-serif Bold';text-align:center;text-anchor:middle;fill:#fbff3d;fill-opacity:1"
         id="path837" />
    </g>
    <g
       aria-label="AF"
       style="font-style:normal;font-weight:normal;font-size:106.83987427px;line-height:1.25;font-family:sans-serif;letter-spacing:0px;word-spacing:0px;fill:#fbff3d;fill-opacity:1;stroke:none;stroke-width:2.6709969"
       id="text831">
      <path
         d="m 134.58702,259.91165 h -20.71066 l -5.37329,-15.70254 H 79.706383 l -5.373295,15.70254 h -20.18898 l 28.692349,-77.67801 h 23.058213 z m -30.93557,-29.94438 -9.546725,-27.85766 -9.546727,27.85766 z"
         style="font-style:normal;font-variant:normal;font-weight:bold;font-stretch:normal;font-family:sans-serif;-inkscape-font-specification:'sans-serif Bold';fill:#fbff3d;fill-opacity:1;stroke-width:2.6709969"
         id="path840" />
      <path
         d="m 201.51845,197.25799 h -35.73502 v 14.45052 h 33.12662 v 15.02435 h -33.12662 v 33.17879 h -19.92814 v -77.67801 h 55.66316 z"
         style="font-style:normal;font-variant:normal;font-weight:bold;font-stretch:normal;font-family:sans-serif;-inkscape-font-specification:'sans-serif Bold';fill:#fbff3d;fill-opacity:1;stroke-width:2.6709969"
         id="path842" />
    </g>
  </g>
</svg>
